Visualisation
…
Cinq qualités d’un bon graphique

Elle est pertinente, puisqu’elle révèle des évidences scientifiques autrement difficilement accessibles.

Elle est instructive, parce que si l’on saisit et accepte les évidences scientifiques qu’elle décrit, cela changera notre perception pour le mieux.

Qualité 1. Honnêteté

library("tidyverse")
nasa_temp <- read_table("https://climate.nasa.gov/system/internal_resources/details/original/647_Global_Temperature_Data_File.txt", skip = 5,
                      col_names = c('year', 'temp', 'loess'))

nasa_temp

# A tibble: 142 × 3
    year  temp loess
   <dbl> <dbl> <dbl>
 1  1880 -0.16 -0.09
 2  1881 -0.08 -0.13
 3  1882 -0.11 -0.16
 4  1883 -0.17 -0.2 
 5  1884 -0.28 -0.24
 6  1885 -0.33 -0.26
 7  1886 -0.31 -0.27
 8  1887 -0.36 -0.27
 9  1888 -0.17 -0.26
10  1889 -0.1  -0.25
# ℹ 132 more rows
…
