Analyse et modélisation d’agroécosystèmes sur R - 3 Organisation des données et opérations sur des tableaux
…
Testons la fonction avec des coordonnées.

dist_station(x = 459875, y = 5701988, stations_df = mes_stations)

[1] "B"

Nous appliquons cette fonction à toutes les lignes du tableau, puis en retournons un échantillon.

chicoute |> 
  rowwise() |> 
  mutate(Station = dist_station(x = Longitude_m, y = Latitude_m, stations_df = mes_stations)) |> 
  select(ID, CodeTourbiere, Longitude_m, Latitude_m, Station) |> 
  slice_sample(n = 10)

# A tibble: 90 × 5
# Rowwise: 
      ID CodeTourbiere Longitude_m Latitude_m Station
   <dbl> <chr>               <dbl>      <dbl> <chr>  
 1     1 BEAU               490627    5702454 A      
 2     2 BEAU               490634    5702452 A      
 3     3 BEAU               490638    5702461 A      
 4     4 BEAU               490647    5702453 A      
 5     5 BEAU               490654    5702445 A      
 6     6 BP                 484865    5706394 B      
 7     7 BP                 484054    5706307 B      
 8     8 BP                 484742    5702280 B      
 9     9 BP                 484761    5706324 B      
10    10 BP                 484780    5706364 B      
# ℹ 80 more rows

Cela semble fonctionner. On peut y ajouter un left_join() pour joindre les données météo au tableau principal.

chicoute_weather <- chicoute |> 
  rowwise() |> 
  mutate(Station = dist_station(x = Longitude_m, y = Latitude_m, stations_df = mes_stations)) |> 
  left_join(y = mes_stations, by = "Station")
chicoute_weather |>  slice_sample(n = 10)

# A tibble: 90 × 36
# Rowwise: 
      ID CodeTourbiere Ordre  Site Traitement DemiParcelle SousTraitement
   <dbl> <chr>         <chr> <dbl> <chr>      <chr>        <chr>         
 1     1 BEAU          A         1 <NA>       <NA>         <NA>          
 2     2 BEAU          A         2 <NA>       <NA>         <NA>          
 3     3 BEAU          A         3 <NA>       <NA>         <NA>          
 4     4 BEAU          A         4 <NA>       <NA>         <NA>          
 5     5 BEAU          A         5 <NA>       <NA>         <NA>          
 6     6 BP            H         1 <NA>       <NA>         <NA>          
 7     7 BP            H         2 <NA>       <NA>         <NA>          
 8     8 BP            H         3 <NA>       <NA>         <NA>          
 9     9 BP            H         4 <NA>       <NA>         <NA>          
10    10 BP            H         5 <NA>       <NA>         <NA>          
# ℹ 80 more rows
# ℹ 29 more variables: Latitude_m.x <dbl>, Longitude_m.x <dbl>,
#   Rendement_g_5m2 <dbl>, TotalRamet_nombre_m2 <dbl>,
#   TotalVegetatif_nombre_m2 <dbl>, TotalFloral_nombre_m2 <dbl>,
#   TotalMale_nombre_m2 <dbl>, TotalFemelle_nombre_m2 <dbl>,
#   FemelleFruit_nombre_m2 <dbl>, FemelleAvorte_nombre_m2 <dbl>,
#   SterileFleur_nombre_m2 <dbl>, C_pourc <dbl>, N_pourc <dbl>, …
…
